{
  "summary": "Постановка на учет в архив документа",
  "idReadable": "ARCH-245",
  "customFields": [
    {
      "projectCustomField": {
        "field": {
          "name": "Priority",
          "$type": "CustomField"
        },
        "$type": "EnumProjectCustomField"
      },
      "id": "67-2486",
      "$type": "SingleEnumIssueCustomField"
    },
    {
      "projectCustomField": {
        "field": {
          "name": "Type",
          "$type": "CustomField"
        },
        "$type": "EnumProjectCustomField"
      },
      "id": "67-2485",
      "$type": "SingleEnumIssueCustomField"
    },
    {
      "projectCustomField": {
        "field": {
          "name": "State",
          "$type": "CustomField"
        },
        "$type": "StateProjectCustomField"
      },
      "id": "67-2487",
      "$type": "StateIssueCustomField"
    },
    {
      "projectCustomField": {
        "field": {
          "name": "Заказчик",
          "$type": "CustomField"
        },
        "$type": "EnumProjectCustomField"
      },
      "id": "67-2489",
      "$type": "SingleEnumIssueCustomField"
    },
    {
      "projectCustomField": {
        "field": {
          "name": "Продукт",
          "$type": "CustomField"
        },
        "$type": "OwnedProjectCustomField"
      },
      "id": "67-2491",
      "$type": "SingleOwnedIssueCustomField"
    },
    {
      "projectCustomField": {
        "field": {
          "name": "Assignee",
          "$type": "CustomField"
        },
        "$type": "UserProjectCustomField"
      },
      "id": "68-777",
      "$type": "SingleUserIssueCustomField"
    },
    {
      "projectCustomField": {
        "field": {
          "name": "Исполнители_Archive",
          "$type": "CustomField"
        },
        "$type": "UserProjectCustomField"
      },
      "id": "68-1045",
      "$type": "MultiUserIssueCustomField"
    },
    {
      "projectCustomField": {
        "field": {
          "name": "Рецензент",
          "$type": "CustomField"
        },
        "$type": "UserProjectCustomField"
      },
      "id": "68-778",
      "$type": "SingleUserIssueCustomField"
    },
    {
      "projectCustomField": {
        "field": {
          "name": "Затраченное время",
          "$type": "CustomField"
        },
        "$type": "PeriodProjectCustomField"
      },
      "id": "100-709",
      "$type": "PeriodIssueCustomField"
    },
    {
      "projectCustomField": {
        "field": {
          "name": "Дедлайн",
          "$type": "CustomField"
        },
        "$type": "SimpleProjectCustomField"
      },
      "id": "139-1027",
      "$type": "DateIssueCustomField"
    },
    {
      "projectCustomField": {
        "field": {
          "name": "Банк документов",
          "$type": "CustomField"
        },
        "$type": "OwnedProjectCustomField"
      },
      "id": "67-2490",
      "$type": "SingleOwnedIssueCustomField"
    },
    {
      "projectCustomField": {
        "field": {
          "name": "Проекты CRM",
          "$type": "CustomField"
        },
        "$type": "TextProjectCustomField"
      },
      "id": "224-587",
      "$type": "TextIssueCustomField"
    },
    {
      "projectCustomField": {
        "field": {
          "name": "Компания ПРОТЕЙ",
          "$type": "CustomField"
        },
        "$type": "EnumProjectCustomField"
      },
      "id": "67-3227",
      "$type": "SingleEnumIssueCustomField"
    }
  ],
  "id": "78-326203",
  "$type": "Issue"
}