{
  "summary": "Постановка на учет в архив документа",
  "idReadable": "ARCH_ST-158",
  "customFields": [
    {
      "projectCustomField": {
        "field": {
          "name": "Priority",
          "$type": "CustomField"
        },
        "$type": "EnumProjectCustomField"
      },
      "id": "67-2493",
      "$type": "SingleEnumIssueCustomField"
    },
    {
      "projectCustomField": {
        "field": {
          "name": "Type",
          "$type": "CustomField"
        },
        "$type": "EnumProjectCustomField"
      },
      "id": "67-2492",
      "$type": "SingleEnumIssueCustomField"
    },
    {
      "projectCustomField": {
        "field": {
          "name": "State",
          "$type": "CustomField"
        },
        "$type": "StateProjectCustomField"
      },
      "id": "67-2494",
      "$type": "StateIssueCustomField"
    },
    {
      "projectCustomField": {
        "field": {
          "name": "Продукт",
          "$type": "CustomField"
        },
        "$type": "OwnedProjectCustomField"
      },
      "id": "67-2499",
      "$type": "SingleOwnedIssueCustomField"
    },
    {
      "projectCustomField": {
        "field": {
          "name": "Заказчик",
          "$type": "CustomField"
        },
        "$type": "EnumProjectCustomField"
      },
      "id": "67-2496",
      "$type": "SingleEnumIssueCustomField"
    },
    {
      "projectCustomField": {
        "field": {
          "name": "Assignee",
          "$type": "CustomField"
        },
        "$type": "UserProjectCustomField"
      },
      "id": "68-779",
      "$type": "SingleUserIssueCustomField"
    },
    {
      "projectCustomField": {
        "field": {
          "name": "Исполнители_Archive_ST",
          "$type": "CustomField"
        },
        "$type": "UserProjectCustomField"
      },
      "id": "68-1044",
      "$type": "MultiUserIssueCustomField"
    },
    {
      "projectCustomField": {
        "field": {
          "name": "Рецензент",
          "$type": "CustomField"
        },
        "$type": "UserProjectCustomField"
      },
      "id": "68-780",
      "$type": "SingleUserIssueCustomField"
    },
    {
      "projectCustomField": {
        "field": {
          "name": "Банк документов",
          "$type": "CustomField"
        },
        "$type": "OwnedProjectCustomField"
      },
      "id": "67-2497",
      "$type": "SingleOwnedIssueCustomField"
    },
    {
      "projectCustomField": {
        "field": {
          "name": "Затраченное время",
          "$type": "CustomField"
        },
        "$type": "PeriodProjectCustomField"
      },
      "id": "100-711",
      "$type": "PeriodIssueCustomField"
    },
    {
      "projectCustomField": {
        "field": {
          "name": "Дедлайн",
          "$type": "CustomField"
        },
        "$type": "SimpleProjectCustomField"
      },
      "id": "139-1028",
      "$type": "DateIssueCustomField"
    },
    {
      "projectCustomField": {
        "field": {
          "name": "Проекты CRM",
          "$type": "CustomField"
        },
        "$type": "TextProjectCustomField"
      },
      "id": "224-588",
      "$type": "TextIssueCustomField"
    },
    {
      "projectCustomField": {
        "field": {
          "name": "Компания ПРОТЕЙ",
          "$type": "CustomField"
        },
        "$type": "EnumProjectCustomField"
      },
      "id": "67-3221",
      "$type": "SingleEnumIssueCustomField"
    }
  ],
  "id": "78-329586",
  "$type": "Issue"
}